{
	"vehicles": [{
		"fixedCost": 100.0,
		"skills": [],
		"maxWeight": 8000,
		"lon": 11.603366,
		"height": 180,
		"width": 160,
		"length": 500,
		"costPerHour": 15.0,
		"startTime": "11.12.2015 01:00:00",
		"costPerKm": 0.5,
		"lat": 52.213362,
		"maxVolume": 3000,
		"endTime": "11.12.2015 18:00:00",
		"type": "Fahrzeug",
		"id": 1000001,
		"quantity": 1
	},
	{
		"fixedCost": 100.0,
		"skills": [],
		"maxWeight": 3000,
		"lon": 11.603366,
		"height": 180,
		"width": 160,
		"length": 500,
		"costPerHour": 15.0,
		"startTime": "11.12.2015 01:00:00",
		"costPerKm": 0.5,
		"lat": 52.213362,
		"maxVolume": 3000,
		"endTime": "11.12.2015 18:00:00",
		"type": "Fahrzeug",
		"id": 1000002,
		"quantity": 1
	}],
	"jobs": [{
		"weight": 1000,
		"transferring": "00:00:00",
		"height": 40.0,
		"delivery": {
			"street": "Rotdornweg ",
			"startTime": "11.12.2015 08:00:00",
			"lat": 52.39997,
			"houseNumber": "6",
			"city": "Genthin",
			"name": "Ralf Geue(87331379407)",
			"zip": "39307",
			"country": "DE",
			"lon": 12.15752,
			"endTime": "11.12.2015 17:00:00",
			"type": "delivery"
		},
		"id": 1,
		"volume": 1000,
		"loading": "00:03:00",
		"length": 40.0,
		"width": 40.0,
		"pickup": {
			"street": "In der Lehmkuhlenbreite",
			"startTime": "11.12.2015 07:00:00",
			"lat": 52.203362,
			"houseNumber": "17",
			"city": "Barleben",
			"name": "Depot",
			"zip": "39179",
			"country": "DE",
			"lon": 11.603366,
			"endTime": "11.12.2015 11:00:00",
			"type": "pickup"
		},
		"type": "PD",
		"unloading": "00:03:00",
		"quantity": 1
	},
	{
		"weight": 2000,
		"transferring": "00:00:00",
		"height": 40.0,
		"delivery": {
			"street": "Am Legefeld ",
			"startTime": "11.12.2015 08:00:00",
			"lat": 52.4167353,
			"houseNumber": "3",
			"city": "Genthin",
			"name": "Frau Struebing Kornelia(89176662964)",
			"zip": "39307",
			"country": "DE",
			"lon": 12.1602585,
			"endTime": "11.12.2015 17:00:00",
			"type": "delivery"
		},
		"id": 4,
		"volume": 1000,
		"loading": "00:03:00",
		"length": 40.0,
		"width": 40.0,
		"pickup": {
			"street": "In der Lehmkuhlenbreite",
			"startTime": "11.12.2015 07:00:00",
			"lat": 52.203362,
			"houseNumber": "17",
			"city": "Barleben",
			"name": "Depot",
			"zip": "39179",
			"country": "DE",
			"lon": 11.603366,
			"endTime": "11.12.2015 11:00:00",
			"type": "pickup"
		},
		"type": "PD",
		"unloading": "00:03:00",
		"quantity": 1
	},
	{
		"weight": 1000,
		"transferring": "00:00:00",
		"height": 40.0,
		"delivery": {
			"street": "Am Werder ",
			"startTime": "11.12.2015 08:00:00",
			"lat": 52.40846,
			"houseNumber": "3",
			"city": "Genthin",
			"name": "Genthiner Maschinen-(18235475872)",
			"zip": "39307",
			"country": "DE",
			"lon": 12.16682,
			"endTime": "11.12.2015 17:00:00",
			"type": "delivery"
		},
		"id": 2,
		"volume": 1000,
		"loading": "00:03:00",
		"length": 40.0,
		"width": 40.0,
		"pickup": {
			"street": "In der Lehmkuhlenbreite",
			"startTime": "11.12.2015 07:00:00",
			"lat": 52.203362,
			"houseNumber": "17",
			"city": "Barleben",
			"name": "Depot",
			"zip": "39179",
			"country": "DE",
			"lon": 11.603366,
			"endTime": "11.12.2015 11:00:00",
			"type": "pickup"
		},
		"type": "PD",
		"unloading": "00:03:00",
		"quantity": 1
	},
	{
		"weight": 2000,
		"transferring": "00:00:00",
		"height": 40.0,
		"delivery": {
			"street": "Am Legefeld ",
			"startTime": "11.12.2015 08:00:00",
			"lat": 52.4167353,
			"houseNumber": "3",
			"city": "Genthin",
			"name": "Frau Struebing Kornelia(89176662964)",
			"zip": "39307",
			"country": "DE",
			"lon": 12.1602585,
			"endTime": "11.12.2015 17:00:00",
			"type": "delivery"
		},
		"id": 3,
		"volume": 2000,
		"loading": "00:03:00",
		"length": 40.0,
		"width": 40.0,
		"pickup": {
			"street": "In der Lehmkuhlenbreite",
			"startTime": "11.12.2015 07:00:00",
			"lat": 52.203362,
			"houseNumber": "17",
			"city": "Barleben",
			"name": "Depot",
			"zip": "39179",
			"country": "DE",
			"lon": 11.603366,
			"endTime": "11.12.2015 11:00:00",
			"type": "pickup"
		},
		"type": "PD",
		"unloading": "00:03:00",
		"quantity": 1
	}],
	"tours": [{
		"tourId": 101,
		"vehicleId": 1000001,
		"startTime": "11.12.2015 07:00:00",
		"endTime": "11.12.2015 09:02:46",
		"operationTime": "08:02:46",
		"serviceTime": "00:21:18",
		"waitingTime": "06:07:44",
		"transportTime": "01:33:44",
		"timeWindowViolation": "00:00:00",
		"totalDistance": 112611.4585590304,
		"transportCosts": 0.0,
		"fixedCosts": 100.0,
		"variableTransportCosts": 85.06742511284854,
		"stops": [{
			"tourStoppIndex": 1,
			"startTime": "11.12.2015 07:00:00",
			"endTime": "11.12.2015 07:09:18",
			"lon": 11.603366,
			"lat": 52.203362,
			"signedJobs": [
			{
				"type": "pickupShipment",
				"jobId": 4
			}]
		},
		{
			"tourStoppIndex": 3,
			"startTime": "11.12.2015 08:13:55",
			"endTime": "11.12.2015 08:19:55",
			"lon": 12.1602585,
			"lat": 52.4167353,
			"signedJobs": [{
				"type": "deliverShipment",
				"jobId": 4
			}]
		}]
	},{
		"tourId": 102,
		"vehicleId": 1000002,
		"startTime": "11.12.2015 07:00:00",
		"endTime": "11.12.2015 09:02:46",
		"operationTime": "08:02:46",
		"serviceTime": "00:21:18",
		"waitingTime": "06:07:44",
		"transportTime": "01:33:44",
		"timeWindowViolation": "00:00:00",
		"totalDistance": 112611.4585590304,
		"transportCosts": 0.0,
		"fixedCosts": 100.0,
		"variableTransportCosts": 85.06742511284854,
		"stops": [{
			"tourStoppIndex": 1,
			"startTime": "11.12.2015 07:00:00",
			"endTime": "11.12.2015 07:09:18",
			"lon": 11.603366,
			"lat": 52.203362,
			"signedJobs": [{
				"type": "pickupShipment",
				"jobId": 2
			}]
		},
		{
			"tourStoppIndex": 2,
			"startTime": "11.12.2015 08:07:09",
			"endTime": "11.12.2015 08:10:09",
			"lon": 12.16682,
			"lat": 52.40846,
			"signedJobs": [{
				"type": "deliverShipment",
				"jobId": 2
			}]
		}]
	}],
	"unassignedJobs": [1,3],
	"parameter": {
		"depotBasedDelivery": false,
		"multipleLoadingFactor": 0.1,
		"multipleUnloadingFactor": 0.1,
		"multipleTransferringFactor": 0.1,
		"graphhopperMaps": "F:\\GH_Test\\GoLive\\v0.2\\sachsen-anhalt-latest.osm-gh",
		"fleetSizeFinite": true,
		"jobLimit": 0,
		"packageLimit": 0,
		"kmLimit": 0.0,
		"hourLimit": 8.0,
		"iterations": 0
	},
	"status": "OK"
}