{
	"vehicles": [{
		"fixedCost": 100.0,
		"skills": [],
		"maxWeight": 3000,
		"lon": 11.603366,
		"height": 180,
		"width": 160,
		"length": 500,
		"costPerHour": 15.0,
		"startTime": "11.12.2015 08:00:00",
		"costPerKm": 0.5,
		"lat": 52.203362,
		"maxVolume": 3000,
		"endTime": "11.12.2015 18:00:00",
		"type": "Fahrzeug",
		"id": 1000001,
		"quantity": 1
	},
	{
		"fixedCost": 100.0,
		"skills": [],
		"maxWeight": 3000,
		"lon": 11.603366,
		"height": 180,
		"width": 160,
		"length": 500,
		"costPerHour": 15.0,
		"startTime": "11.12.2015 08:00:00",
		"costPerKm": 0.5,
		"lat": 52.203362,
		"maxVolume": 3000,
		"endTime": "11.12.2015 18:00:00",
		"type": "Fahrzeug",
		"id": 1000002,
		"quantity": 1
	}],
	"jobs": [{
		"weight": 1000,
		"transferring": "00:00:00",
		"height": 40.0,
		"delivery": {
			"street": "Rotdornweg ",
			"startTime": "11.12.2015 08:00:00",
			"lat": 52.39997,
			"houseNumber": "6",
			"city": "Genthin",
			"name": "Ralf Geue(87331379407)",
			"zip": "39307",
			"country": "DE",
			"lon": 12.15752,
			"endTime": "11.12.2015 17:00:00",
			"type": "delivery"
		},
		"id": 1,
		"volume": 1000,
		"loading": "00:00:00",
		"length": 40.0,
		"width": 40.0,
		"pickup": {
			"street": "In der Lehmkuhlenbreite",
			"startTime": "11.12.2015 07:00:00",
			"lat": 52.203362,
			"houseNumber": "17",
			"city": "Barleben",
			"name": "Depot",
			"zip": "39179",
			"country": "DE",
			"lon": 11.603366,
			"endTime": "11.12.2015 11:00:00",
			"type": "pickup"
		},
		"type": "PD",
		"unloading": "00:03:00",
		"quantity": 1
	},
	{
		"weight": 1000,
		"transferring": "00:00:00",
		"height": 40.0,
		"delivery": {
			"street": "Am Werder ",
			"startTime": "11.12.2015 08:00:00",
			"lat": 52.40846,
			"houseNumber": "3",
			"city": "Genthin",
			"name": "Genthiner Maschinen-(18235475872)",
			"zip": "39307",
			"country": "DE",
			"lon": 12.16682,
			"endTime": "11.12.2015 17:00:00",
			"type": "delivery"
		},
		"id": 2,
		"volume": 1000,
		"loading": "00:00:00",
		"length": 40.0,
		"width": 40.0,
		"pickup": {
			"street": "In der Lehmkuhlenbreite",
			"startTime": "11.12.2015 07:00:00",
			"lat": 52.203362,
			"houseNumber": "17",
			"city": "Barleben",
			"name": "Depot",
			"zip": "39179",
			"country": "DE",
			"lon": 11.603366,
			"endTime": "11.12.2015 11:00:00",
			"type": "pickup"
		},
		"type": "PD",
		"unloading": "00:03:00",
		"quantity": 1
	},
	{
		"weight": 2000,
		"transferring": "00:00:00",
		"height": 40.0,
		"delivery": {
			"street": "Am Legefeld ",
			"startTime": "11.12.2015 08:00:00",
			"lat": 52.4167353,
			"houseNumber": "3",
			"city": "Genthin",
			"name": "Frau Struebing Kornelia(89176662964)",
			"zip": "39307",
			"country": "DE",
			"lon": 12.1602585,
			"endTime": "11.12.2015 17:00:00",
			"type": "delivery"
		},
		"id": 3,
		"volume": 2000,
		"loading": "00:00:00",
		"length": 40.0,
		"width": 40.0,
		"pickup": {
			"street": "In der Lehmkuhlenbreite",
			"startTime": "11.12.2015 07:00:00",
			"lat": 52.203362,
			"houseNumber": "17",
			"city": "Barleben",
			"name": "Depot",
			"zip": "39179",
			"country": "DE",
			"lon": 11.603366,
			"endTime": "11.12.2015 11:00:00",
			"type": "pickup"
		},
		"type": "PD",
		"unloading": "00:03:00",
		"quantity": 1
	}],
	"tours": [{
		"tourId": 1,
		"vehicleId": 1000001,
		"startTime": "11.12.2015 08:00:00",
		"endTime": "11.12.2015 11:01:04",
		"stops": [{
			"tourStoppIndex": 1,
			"startTime": "11.12.2015 08:00:00",
			"endTime": "11.12.2015 08:00:00",
			"lon": 11.603366,
			"lat": 52.203362,
			"signedJobs": [{
				"type": "pickupShipment",
				"jobId": 1
			}]
		},
		{
			"tourStoppIndex": 2,
			"startTime": "11.12.2015 08:41:24",
			"endTime": "11.12.2015 08:44:24",
			"lon": 12.15752,
			"lat": 52.39997,
			"signedJobs": [{
				"type": "deliverShipment",
				"jobId": 1
			}]
		},
		{
			"tourStoppIndex": 3,
			"startTime": "11.12.2015 09:25:49",
			"endTime": "11.12.2015 09:25:49",
			"lon": 11.603366,
			"lat": 52.203362,
			"signedJobs": [{
				"type": "pickupShipment",
				"jobId": 2
			},
			{
				"type": "pickupShipment",
				"jobId": 3
			}]
		},
		{
			"tourStoppIndex": 4,
			"startTime": "11.12.2015 10:07:46",
			"endTime": "11.12.2015 10:10:46",
			"lon": 12.16682,
			"lat": 52.40846,
			"signedJobs": [{
				"type": "deliverShipment",
				"jobId": 2
			}]
		},
		{
			"tourStoppIndex": 5,
			"startTime": "11.12.2015 10:14:32",
			"endTime": "11.12.2015 10:17:32",
			"lon": 12.1602585,
			"lat": 52.4167353,
			"signedJobs": [{
				"type": "deliverShipment",
				"jobId": 3
			}]
		}]
	}],
	"unassignedJobs": [],
	"parameter": {
		"depotBasedDelivery": true,
		"multipleLoadingFactor": 0.1,
		"multipleUnloadingFactor": 0.1,
		"multipleTransferringFactor": 0.1,
		"graphhopperMaps": "F:\\GH_Test\\GoLive\\v0.2\\sachsen-anhalt-latest.osm-gh",
		"fleetSizeFinite": true,
		"jobLimit": 0,
		"packageLimit": 0,
		"kmLimit": 0.0,
		"hourLimit": 8.0,
		"iterations": 0
	},
	"status": "OK"
}