<?xml version="1.0" encoding="UTF-8"?>
<problem xmlns="http://www.w3schools.com"
     xmlns:xsi="http://www.w3.org/2001/XMLSchema-instance" xsi:schemaLocation="http://www.w3schools.com vrp_xml_schema.xsd">
     <problemType>
          <fleetSize>FINITE</fleetSize>
     </problemType>
     <vehicles>
          <vehicle>
               <id>5925572</id>
               <typeId>Fahrzeug</typeId>
               <startLocation>
                    <id>52.2033,11.60337</id>
                    <coord x="11.60337" y="52.2033"/>
               </startLocation>
               <endLocation>
                    <id>52.4033,11.80337</id>
                    <coord x="11.80337" y="52.4033"/>
               </endLocation>
               <timeSchedule>
                    <start>1.4567292E9</start>
                    <end>1.4567652E9</end>
               </timeSchedule>
               <returnToDepot>true</returnToDepot>
          </vehicle>
          <vehicle>
               <id>9925560</id>
               <typeId>Fahrzeug</typeId>
               <startLocation>
                    <id>52.2033,11.60337</id>
                    <coord x="11.60337" y="52.2033"/>
               </startLocation>
               <endLocation>
                    <id>52.4033,11.80337</id>
                    <coord x="11.80337" y="52.4033"/>
               </endLocation>
               <timeSchedule>
                    <start>1.4567292E9</start>
                    <end>1.4567652E9</end>
               </timeSchedule>
               <returnToDepot>true</returnToDepot>
          </vehicle>
          <vehicle>
               <id>8925560</id>
               <typeId>Fahrzeug</typeId>
               <startLocation>
                    <id>52.2033,11.60337</id>
                    <coord x="11.60337" y="52.2033"/>
               </startLocation>
               <endLocation>
                    <id>52.4033,11.80337</id>
                    <coord x="11.80337" y="52.4033"/>
               </endLocation>
               <timeSchedule>
                    <start>1.4567292E9</start>
                    <end>1.4567652E9</end>
               </timeSchedule>
               <returnToDepot>true</returnToDepot>
          </vehicle>
          <vehicle>
               <id>5925560</id>
               <typeId>Fahrzeug</typeId>
               <startLocation>
                    <id>52.2033,11.60337</id>
                    <coord x="11.60337" y="52.2033"/>
               </startLocation>
               <endLocation>
                    <id>52.2033,11.60337</id>
                    <coord x="11.60337" y="52.2033"/>
               </endLocation>
               <timeSchedule>
                    <start>1.4567292E9</start>
                    <end>1.4567652E9</end>
               </timeSchedule>
               <returnToDepot>true</returnToDepot>
          </vehicle>
     </vehicles>
     <vehicleTypes>
          <type>
               <id>Fahrzeug</id>
               <capacity-dimensions>
                    <dimension index="0">920000</dimension>
               </capacity-dimensions>
               <costs>
                    <fixed>100.0</fixed>
                    <distance>0.0</distance>
                    <time>0.004166666666666667</time>
               </costs>
          </type>
     </vehicleTypes>
     <services>
          <service id="16843380" type="delivery">
               <location>
                    <id>52.1338365,11.6189452</id>
                    <coord x="11.6189452" y="52.1338365"/>
               </location>
               <capacity-dimensions>
                    <dimension index="0">2500</dimension>
               </capacity-dimensions>
               <duration>300.0</duration>
               <timeWindows>
                    <timeWindow>
                         <start>1.4567301E9</start>
                         <end>1.45676334E9</end>
                    </timeWindow>
               </timeWindows>
          </service>
          <service id="16843382" type="delivery">
               <location>
                    <id>52.1351718,11.6153779</id>
                    <coord x="11.6153779" y="52.1351718"/>
               </location>
               <capacity-dimensions>
                    <dimension index="0">2500</dimension>
               </capacity-dimensions>
               <duration>300.0</duration>
               <timeWindows>
                    <timeWindow>
                         <start>1.4567301E9</start>
                         <end>1.45676334E9</end>
                    </timeWindow>
               </timeWindows>
          </service>
          <service id="16843384" type="delivery">
               <location>
                    <id>52.13543,11.61245</id>
                    <coord x="11.61245" y="52.13543"/>
               </location>
               <capacity-dimensions>
                    <dimension index="0">2500</dimension>
               </capacity-dimensions>
               <duration>300.0</duration>
               <timeWindows>
                    <timeWindow>
                         <start>1.4567301E9</start>
                         <end>1.45676334E9</end>
                    </timeWindow>
               </timeWindows>
          </service>
          <service id="16843386" type="delivery">
               <location>
                    <id>52.1402786,11.6167962</id>
                    <coord x="11.6167962" y="52.1402786"/>
               </location>
               <capacity-dimensions>
                    <dimension index="0">2500</dimension>
               </capacity-dimensions>
               <duration>300.0</duration>
               <timeWindows>
                    <timeWindow>
                         <start>1.4567301E9</start>
                         <end>1.45676334E9</end>
                    </timeWindow>
               </timeWindows>
          </service>
          <service id="16843388" type="delivery">
               <location>
                    <id>52.1326184,11.622007</id>
                    <coord x="11.622007" y="52.1326184"/>
               </location>
               <capacity-dimensions>
                    <dimension index="0">2500</dimension>
               </capacity-dimensions>
               <duration>300.0</duration>
               <timeWindows>
                    <timeWindow>
                         <start>1.4567301E9</start>
                         <end>1.45676334E9</end>
                    </timeWindow>
               </timeWindows>
          </service>
          <service id="16843390" type="delivery">
               <location>
                    <id>52.1335819,11.6140657</id>
                    <coord x="11.6140657" y="52.1335819"/>
               </location>
               <capacity-dimensions>
                    <dimension index="0">2500</dimension>
               </capacity-dimensions>
               <duration>300.0</duration>
               <timeWindows>
                    <timeWindow>
                         <start>1.4567301E9</start>
                         <end>1.45676334E9</end>
                    </timeWindow>
               </timeWindows>
          </service>
          <service id="16843392" type="delivery">
               <location>
                    <id>52.1404149,11.6202749</id>
                    <coord x="11.6202749" y="52.1404149"/>
               </location>
               <capacity-dimensions>
                    <dimension index="0">2500</dimension>
               </capacity-dimensions>
               <duration>300.0</duration>
               <timeWindows>
                    <timeWindow>
                         <start>1.4567301E9</start>
                         <end>1.45676334E9</end>
                    </timeWindow>
               </timeWindows>
          </service>
          <service id="16843394" type="delivery">
               <location>
                    <id>52.1369999,11.6215283</id>
                    <coord x="11.6215283" y="52.1369999"/>
               </location>
               <capacity-dimensions>
                    <dimension index="0">2500</dimension>
               </capacity-dimensions>
               <duration>300.0</duration>
               <timeWindows>
                    <timeWindow>
                         <start>1.4567301E9</start>
                         <end>1.45676334E9</end>
                    </timeWindow>
               </timeWindows>
          </service>
          <service id="16843396" type="delivery">
               <location>
                    <id>52.1352,11.61398</id>
                    <coord x="11.61398" y="52.1352"/>
               </location>
               <capacity-dimensions>
                    <dimension index="0">2500</dimension>
               </capacity-dimensions>
               <duration>300.0</duration>
               <timeWindows>
                    <timeWindow>
                         <start>1.4567301E9</start>
                         <end>1.45676334E9</end>
                    </timeWindow>
               </timeWindows>
          </service>
          <service id="16843398" type="delivery">
               <location>
                    <id>52.1403449,11.6208703</id>
                    <coord x="11.6208703" y="52.1403449"/>
               </location>
               <capacity-dimensions>
                    <dimension index="0">2500</dimension>
               </capacity-dimensions>
               <duration>300.0</duration>
               <timeWindows>
                    <timeWindow>
                         <start>1.4567301E9</start>
                         <end>1.45676334E9</end>
                    </timeWindow>
               </timeWindows>
          </service>
          <service id="16843400" type="delivery">
               <location>
                    <id>52.1237109,11.6123913</id>
                    <coord x="11.6123913" y="52.1237109"/>
               </location>
               <capacity-dimensions>
                    <dimension index="0">2500</dimension>
               </capacity-dimensions>
               <duration>300.0</duration>
               <timeWindows>
                    <timeWindow>
                         <start>1.4567301E9</start>
                         <end>1.45676334E9</end>
                    </timeWindow>
               </timeWindows>
          </service>
          <service id="16843402" type="delivery">
               <location>
                    <id>52.1303605,11.6128253</id>
                    <coord x="11.6128253" y="52.1303605"/>
               </location>
               <capacity-dimensions>
                    <dimension index="0">2500</dimension>
               </capacity-dimensions>
               <duration>300.0</duration>
               <timeWindows>
                    <timeWindow>
                         <start>1.4567301E9</start>
                         <end>1.45676334E9</end>
                    </timeWindow>
               </timeWindows>
          </service>
          <service id="16843404" type="delivery">
               <location>
                    <id>52.1299942,11.6105138</id>
                    <coord x="11.6105138" y="52.1299942"/>
               </location>
               <capacity-dimensions>
                    <dimension index="0">2500</dimension>
               </capacity-dimensions>
               <duration>300.0</duration>
               <timeWindows>
                    <timeWindow>
                         <start>1.4567301E9</start>
                         <end>1.45676334E9</end>
                    </timeWindow>
               </timeWindows>
          </service>
          <service id="16843406" type="delivery">
               <location>
                    <id>52.13076,11.60857</id>
                    <coord x="11.60857" y="52.13076"/>
               </location>
               <capacity-dimensions>
                    <dimension index="0">2500</dimension>
               </capacity-dimensions>
               <duration>300.0</duration>
               <timeWindows>
                    <timeWindow>
                         <start>1.4567301E9</start>
                         <end>1.45676334E9</end>
                    </timeWindow>
               </timeWindows>
          </service>
          <service id="16843408" type="delivery">
               <location>
                    <id>52.13227,11.60824</id>
                    <coord x="11.60824" y="52.13227"/>
               </location>
               <capacity-dimensions>
                    <dimension index="0">2500</dimension>
               </capacity-dimensions>
               <duration>300.0</duration>
               <timeWindows>
                    <timeWindow>
                         <start>1.4567301E9</start>
                         <end>1.45676334E9</end>
                    </timeWindow>
               </timeWindows>
          </service>
          <service id="16843410" type="delivery">
               <location>
                    <id>52.13189,11.6251905</id>
                    <coord x="11.6251905" y="52.13189"/>
               </location>
               <capacity-dimensions>
                    <dimension index="0">2500</dimension>
               </capacity-dimensions>
               <duration>300.0</duration>
               <timeWindows>
                    <timeWindow>
                         <start>1.4567301E9</start>
                         <end>1.45676334E9</end>
                    </timeWindow>
               </timeWindows>
          </service>
          <service id="16843412" type="delivery">
               <location>
                    <id>52.1303414,11.6157454</id>
                    <coord x="11.6157454" y="52.1303414"/>
               </location>
               <capacity-dimensions>
                    <dimension index="0">2500</dimension>
               </capacity-dimensions>
               <duration>300.0</duration>
               <timeWindows>
                    <timeWindow>
                         <start>1.4567301E9</start>
                         <end>1.45676334E9</end>
                    </timeWindow>
               </timeWindows>
          </service>
          <service id="16843414" type="delivery">
               <location>
                    <id>52.1214489,11.6119367</id>
                    <coord x="11.6119367" y="52.1214489"/>
               </location>
               <capacity-dimensions>
                    <dimension index="0">2500</dimension>
               </capacity-dimensions>
               <duration>300.0</duration>
               <timeWindows>
                    <timeWindow>
                         <start>1.4567301E9</start>
                         <end>1.45676334E9</end>
                    </timeWindow>
               </timeWindows>
          </service>
          <service id="16843416" type="delivery">
               <location>
                    <id>52.1325891,11.6210021</id>
                    <coord x="11.6210021" y="52.1325891"/>
               </location>
               <capacity-dimensions>
                    <dimension index="0">2500</dimension>
               </capacity-dimensions>
               <duration>300.0</duration>
               <timeWindows>
                    <timeWindow>
                         <start>1.4567301E9</start>
                         <end>1.45676334E9</end>
                    </timeWindow>
               </timeWindows>
          </service>
          <service id="16843418" type="delivery">
               <location>
                    <id>52.13445,11.62144</id>
                    <coord x="11.62144" y="52.13445"/>
               </location>
               <capacity-dimensions>
                    <dimension index="0">2500</dimension>
               </capacity-dimensions>
               <duration>300.0</duration>
               <timeWindows>
                    <timeWindow>
                         <start>1.4567301E9</start>
                         <end>1.45676334E9</end>
                    </timeWindow>
               </timeWindows>
          </service>
          <service id="16843420" type="delivery">
               <location>
                    <id>52.13387,11.6227</id>
                    <coord x="11.6227" y="52.13387"/>
               </location>
               <capacity-dimensions>
                    <dimension index="0">2500</dimension>
               </capacity-dimensions>
               <duration>300.0</duration>
               <timeWindows>
                    <timeWindow>
                         <start>1.4567301E9</start>
                         <end>1.45676334E9</end>
                    </timeWindow>
               </timeWindows>
          </service>
          <service id="16843422" type="delivery">
               <location>
                    <id>52.1287076,11.6193428</id>
                    <coord x="11.6193428" y="52.1287076"/>
               </location>
               <capacity-dimensions>
                    <dimension index="0">2500</dimension>
               </capacity-dimensions>
               <duration>300.0</duration>
               <timeWindows>
                    <timeWindow>
                         <start>1.4567301E9</start>
                         <end>1.45676334E9</end>
                    </timeWindow>
               </timeWindows>
          </service>
          <service id="16843424" type="delivery">
               <location>
                    <id>52.1357732,11.6082885</id>
                    <coord x="11.6082885" y="52.1357732"/>
               </location>
               <capacity-dimensions>
                    <dimension index="0">2500</dimension>
               </capacity-dimensions>
               <duration>300.0</duration>
               <timeWindows>
                    <timeWindow>
                         <start>1.4567301E9</start>
                         <end>1.45676334E9</end>
                    </timeWindow>
               </timeWindows>
          </service>
          <service id="16843426" type="delivery">
               <location>
                    <id>52.13481,11.61794</id>
                    <coord x="11.61794" y="52.13481"/>
               </location>
               <capacity-dimensions>
                    <dimension index="0">2500</dimension>
               </capacity-dimensions>
               <duration>300.0</duration>
               <timeWindows>
                    <timeWindow>
                         <start>1.4567301E9</start>
                         <end>1.45676334E9</end>
                    </timeWindow>
               </timeWindows>
          </service>
          <service id="16843428" type="delivery">
               <location>
                    <id>52.1356838,11.6137067</id>
                    <coord x="11.6137067" y="52.1356838"/>
               </location>
               <capacity-dimensions>
                    <dimension index="0">2500</dimension>
               </capacity-dimensions>
               <duration>300.0</duration>
               <timeWindows>
                    <timeWindow>
                         <start>1.4567301E9</start>
                         <end>1.45676334E9</end>
                    </timeWindow>
               </timeWindows>
          </service>
          <service id="16843430" type="delivery">
               <location>
                    <id>52.1407829,11.6238931</id>
                    <coord x="11.6238931" y="52.1407829"/>
               </location>
               <capacity-dimensions>
                    <dimension index="0">2500</dimension>
               </capacity-dimensions>
               <duration>300.0</duration>
               <timeWindows>
                    <timeWindow>
                         <start>1.4567301E9</start>
                         <end>1.45676334E9</end>
                    </timeWindow>
               </timeWindows>
          </service>
          <service id="16843432" type="delivery">
               <location>
                    <id>52.1361214,11.6099526</id>
                    <coord x="11.6099526" y="52.1361214"/>
               </location>
               <capacity-dimensions>
                    <dimension index="0">2500</dimension>
               </capacity-dimensions>
               <duration>300.0</duration>
               <timeWindows>
                    <timeWindow>
                         <start>1.4567301E9</start>
                         <end>1.45676334E9</end>
                    </timeWindow>
               </timeWindows>
          </service>
          <service id="16843434" type="delivery">
               <location>
                    <id>52.1246187,11.6100718</id>
                    <coord x="11.6100718" y="52.1246187"/>
               </location>
               <capacity-dimensions>
                    <dimension index="0">2500</dimension>
               </capacity-dimensions>
               <duration>300.0</duration>
               <timeWindows>
                    <timeWindow>
                         <start>1.4567301E9</start>
                         <end>1.45676334E9</end>
                    </timeWindow>
               </timeWindows>
          </service>
          <service id="16843436" type="delivery">
               <location>
                    <id>52.13094,11.61539</id>
                    <coord x="11.61539" y="52.13094"/>
               </location>
               <capacity-dimensions>
                    <dimension index="0">2500</dimension>
               </capacity-dimensions>
               <duration>300.0</duration>
               <timeWindows>
                    <timeWindow>
                         <start>1.4567301E9</start>
                         <end>1.45676334E9</end>
                    </timeWindow>
               </timeWindows>
          </service>
          <service id="16843438" type="delivery">
               <location>
                    <id>52.12552,11.61137</id>
                    <coord x="11.61137" y="52.12552"/>
               </location>
               <capacity-dimensions>
                    <dimension index="0">2500</dimension>
               </capacity-dimensions>
               <duration>300.0</duration>
               <timeWindows>
                    <timeWindow>
                         <start>1.4567301E9</start>
                         <end>1.45676334E9</end>
                    </timeWindow>
               </timeWindows>
          </service>
          <service id="16843440" type="delivery">
               <location>
                    <id>52.1228411,11.6078174</id>
                    <coord x="11.6078174" y="52.1228411"/>
               </location>
               <capacity-dimensions>
                    <dimension index="0">2500</dimension>
               </capacity-dimensions>
               <duration>300.0</duration>
               <timeWindows>
                    <timeWindow>
                         <start>1.4567301E9</start>
                         <end>1.45676334E9</end>
                    </timeWindow>
               </timeWindows>
          </service>
          <service id="16843442" type="delivery">
               <location>
                    <id>52.12604,11.61278</id>
                    <coord x="11.61278" y="52.12604"/>
               </location>
               <capacity-dimensions>
                    <dimension index="0">2500</dimension>
               </capacity-dimensions>
               <duration>300.0</duration>
               <timeWindows>
                    <timeWindow>
                         <start>1.4567301E9</start>
                         <end>1.45676334E9</end>
                    </timeWindow>
               </timeWindows>
          </service>
          <service id="16843444" type="delivery">
               <location>
                    <id>52.1310282,11.6142389</id>
                    <coord x="11.6142389" y="52.1310282"/>
               </location>
               <capacity-dimensions>
                    <dimension index="0">2500</dimension>
               </capacity-dimensions>
               <duration>300.0</duration>
               <timeWindows>
                    <timeWindow>
                         <start>1.4567301E9</start>
                         <end>1.45676334E9</end>
                    </timeWindow>
               </timeWindows>
          </service>
          <service id="16843446" type="delivery">
               <location>
                    <id>52.1302783,11.6103811</id>
                    <coord x="11.6103811" y="52.1302783"/>
               </location>
               <capacity-dimensions>
                    <dimension index="0">2500</dimension>
               </capacity-dimensions>
               <duration>300.0</duration>
               <timeWindows>
                    <timeWindow>
                         <start>1.4567301E9</start>
                         <end>1.45676334E9</end>
                    </timeWindow>
               </timeWindows>
          </service>
          <service id="16843448" type="delivery">
               <location>
                    <id>52.1203219,11.6139447</id>
                    <coord x="11.6139447" y="52.1203219"/>
               </location>
               <capacity-dimensions>
                    <dimension index="0">2500</dimension>
               </capacity-dimensions>
               <duration>300.0</duration>
               <timeWindows>
                    <timeWindow>
                         <start>1.4567301E9</start>
                         <end>1.45676334E9</end>
                    </timeWindow>
               </timeWindows>
          </service>
          <service id="16843450" type="delivery">
               <location>
                    <id>52.1213858,11.6145168</id>
                    <coord x="11.6145168" y="52.1213858"/>
               </location>
               <capacity-dimensions>
                    <dimension index="0">2500</dimension>
               </capacity-dimensions>
               <duration>300.0</duration>
               <timeWindows>
                    <timeWindow>
                         <start>1.4567301E9</start>
                         <end>1.45676334E9</end>
                    </timeWindow>
               </timeWindows>
          </service>
          <service id="16843452" type="delivery">
               <location>
                    <id>52.12735,11.613278</id>
                    <coord x="11.613278" y="52.12735"/>
               </location>
               <capacity-dimensions>
                    <dimension index="0">2500</dimension>
               </capacity-dimensions>
               <duration>300.0</duration>
               <timeWindows>
                    <timeWindow>
                         <start>1.4567301E9</start>
                         <end>1.45676334E9</end>
                    </timeWindow>
               </timeWindows>
          </service>
          <service id="16843454" type="delivery">
               <location>
                    <id>52.1314513,11.6060131</id>
                    <coord x="11.6060131" y="52.1314513"/>
               </location>
               <capacity-dimensions>
                    <dimension index="0">2500</dimension>
               </capacity-dimensions>
               <duration>300.0</duration>
               <timeWindows>
                    <timeWindow>
                         <start>1.4567301E9</start>
                         <end>1.45676334E9</end>
                    </timeWindow>
               </timeWindows>
          </service>
          <service id="16843456" type="delivery">
               <location>
                    <id>52.1336491,11.6154254</id>
                    <coord x="11.6154254" y="52.1336491"/>
               </location>
               <capacity-dimensions>
                    <dimension index="0">2500</dimension>
               </capacity-dimensions>
               <duration>300.0</duration>
               <timeWindows>
                    <timeWindow>
                         <start>1.4567301E9</start>
                         <end>1.45676334E9</end>
                    </timeWindow>
               </timeWindows>
          </service>
          <service id="16843458" type="delivery">
               <location>
                    <id>52.1361043,11.6138342</id>
                    <coord x="11.6138342" y="52.1361043"/>
               </location>
               <capacity-dimensions>
                    <dimension index="0">2500</dimension>
               </capacity-dimensions>
               <duration>300.0</duration>
               <timeWindows>
                    <timeWindow>
                         <start>1.4567301E9</start>
                         <end>1.45676334E9</end>
                    </timeWindow>
               </timeWindows>
          </service>
          <service id="16843460" type="delivery">
               <location>
                    <id>52.13778,11.62045</id>
                    <coord x="11.62045" y="52.13778"/>
               </location>
               <capacity-dimensions>
                    <dimension index="0">2500</dimension>
               </capacity-dimensions>
               <duration>300.0</duration>
               <timeWindows>
                    <timeWindow>
                         <start>1.4567301E9</start>
                         <end>1.45676334E9</end>
                    </timeWindow>
               </timeWindows>
          </service>
          <service id="16843462" type="delivery">
               <location>
                    <id>52.1237265,11.6115559</id>
                    <coord x="11.6115559" y="52.1237265"/>
               </location>
               <capacity-dimensions>
                    <dimension index="0">2500</dimension>
               </capacity-dimensions>
               <duration>300.0</duration>
               <timeWindows>
                    <timeWindow>
                         <start>1.4567301E9</start>
                         <end>1.45676334E9</end>
                    </timeWindow>
               </timeWindows>
          </service>
          <service id="16843464" type="delivery">
               <location>
                    <id>52.1324849,11.6232455</id>
                    <coord x="11.6232455" y="52.1324849"/>
               </location>
               <capacity-dimensions>
                    <dimension index="0">2500</dimension>
               </capacity-dimensions>
               <duration>300.0</duration>
               <timeWindows>
                    <timeWindow>
                         <start>1.4567301E9</start>
                         <end>1.45676334E9</end>
                    </timeWindow>
               </timeWindows>
          </service>
          <service id="16843466" type="delivery">
               <location>
                    <id>52.1201737,11.611961</id>
                    <coord x="11.611961" y="52.1201737"/>
               </location>
               <capacity-dimensions>
                    <dimension index="0">2500</dimension>
               </capacity-dimensions>
               <duration>300.0</duration>
               <timeWindows>
                    <timeWindow>
                         <start>1.4567301E9</start>
                         <end>1.45676334E9</end>
                    </timeWindow>
               </timeWindows>
          </service>
          <service id="16843468" type="delivery">
               <location>
                    <id>52.12998,11.61225</id>
                    <coord x="11.61225" y="52.12998"/>
               </location>
               <capacity-dimensions>
                    <dimension index="0">2500</dimension>
               </capacity-dimensions>
               <duration>300.0</duration>
               <timeWindows>
                    <timeWindow>
                         <start>1.4567301E9</start>
                         <end>1.45676334E9</end>
                    </timeWindow>
               </timeWindows>
          </service>
          <service id="16843470" type="delivery">
               <location>
                    <id>52.1369262,11.6223951</id>
                    <coord x="11.6223951" y="52.1369262"/>
               </location>
               <capacity-dimensions>
                    <dimension index="0">2500</dimension>
               </capacity-dimensions>
               <duration>300.0</duration>
               <timeWindows>
                    <timeWindow>
                         <start>1.4567301E9</start>
                         <end>1.45676334E9</end>
                    </timeWindow>
               </timeWindows>
          </service>
          <service id="16843472" type="delivery">
               <location>
                    <id>52.13143,11.61292</id>
                    <coord x="11.61292" y="52.13143"/>
               </location>
               <capacity-dimensions>
                    <dimension index="0">2500</dimension>
               </capacity-dimensions>
               <duration>300.0</duration>
               <timeWindows>
                    <timeWindow>
                         <start>1.4567301E9</start>
                         <end>1.45676334E9</end>
                    </timeWindow>
               </timeWindows>
          </service>
          <service id="16843474" type="delivery">
               <location>
                    <id>52.1284677,11.6139581</id>
                    <coord x="11.6139581" y="52.1284677"/>
               </location>
               <capacity-dimensions>
                    <dimension index="0">2500</dimension>
               </capacity-dimensions>
               <duration>300.0</duration>
               <timeWindows>
                    <timeWindow>
                         <start>1.4567301E9</start>
                         <end>1.45676334E9</end>
                    </timeWindow>
               </timeWindows>
          </service>
          <service id="16843476" type="delivery">
               <location>
                    <id>52.1326324,11.6065776</id>
                    <coord x="11.6065776" y="52.1326324"/>
               </location>
               <capacity-dimensions>
                    <dimension index="0">2500</dimension>
               </capacity-dimensions>
               <duration>300.0</duration>
               <timeWindows>
                    <timeWindow>
                         <start>1.4567301E9</start>
                         <end>1.45676334E9</end>
                    </timeWindow>
               </timeWindows>
          </service>
          <service id="16843478" type="delivery">
               <location>
                    <id>52.1320439,11.6084026</id>
                    <coord x="11.6084026" y="52.1320439"/>
               </location>
               <capacity-dimensions>
                    <dimension index="0">2500</dimension>
               </capacity-dimensions>
               <duration>300.0</duration>
               <timeWindows>
                    <timeWindow>
                         <start>1.4567301E9</start>
                         <end>1.45676334E9</end>
                    </timeWindow>
               </timeWindows>
          </service>
          <service id="16843480" type="delivery">
               <location>
                    <id>52.124825,11.608872</id>
                    <coord x="11.608872" y="52.124825"/>
               </location>
               <capacity-dimensions>
                    <dimension index="0">2500</dimension>
               </capacity-dimensions>
               <duration>300.0</duration>
               <timeWindows>
                    <timeWindow>
                         <start>1.4567301E9</start>
                         <end>1.45676334E9</end>
                    </timeWindow>
               </timeWindows>
          </service>
          <service id="16843482" type="delivery">
               <location>
                    <id>52.1321598,11.6156938</id>
                    <coord x="11.6156938" y="52.1321598"/>
               </location>
               <capacity-dimensions>
                    <dimension index="0">2500</dimension>
               </capacity-dimensions>
               <duration>300.0</duration>
               <timeWindows>
                    <timeWindow>
                         <start>1.4567301E9</start>
                         <end>1.45676334E9</end>
                    </timeWindow>
               </timeWindows>
          </service>
          <service id="16843484" type="delivery">
               <location>
                    <id>52.1260508,11.6123637</id>
                    <coord x="11.6123637" y="52.1260508"/>
               </location>
               <capacity-dimensions>
                    <dimension index="0">2500</dimension>
               </capacity-dimensions>
               <duration>300.0</duration>
               <timeWindows>
                    <timeWindow>
                         <start>1.4567301E9</start>
                         <end>1.45676334E9</end>
                    </timeWindow>
               </timeWindows>
          </service>
          <service id="16843486" type="delivery">
               <location>
                    <id>52.1306123,11.6185696</id>
                    <coord x="11.6185696" y="52.1306123"/>
               </location>
               <capacity-dimensions>
                    <dimension index="0">2500</dimension>
               </capacity-dimensions>
               <duration>300.0</duration>
               <timeWindows>
                    <timeWindow>
                         <start>1.4567301E9</start>
                         <end>1.45676334E9</end>
                    </timeWindow>
               </timeWindows>
          </service>
          <service id="16843488" type="delivery">
               <location>
                    <id>52.1317019,11.6178093</id>
                    <coord x="11.6178093" y="52.1317019"/>
               </location>
               <capacity-dimensions>
                    <dimension index="0">2500</dimension>
               </capacity-dimensions>
               <duration>300.0</duration>
               <timeWindows>
                    <timeWindow>
                         <start>1.4567301E9</start>
                         <end>1.45676334E9</end>
                    </timeWindow>
               </timeWindows>
          </service>
          <service id="16843490" type="delivery">
               <location>
                    <id>52.13025,11.62017</id>
                    <coord x="11.62017" y="52.13025"/>
               </location>
               <capacity-dimensions>
                    <dimension index="0">2500</dimension>
               </capacity-dimensions>
               <duration>300.0</duration>
               <timeWindows>
                    <timeWindow>
                         <start>1.4567301E9</start>
                         <end>1.45676334E9</end>
                    </timeWindow>
               </timeWindows>
          </service>
          <service id="16843492" type="delivery">
               <location>
                    <id>52.12686,11.60678</id>
                    <coord x="11.60678" y="52.12686"/>
               </location>
               <capacity-dimensions>
                    <dimension index="0">2500</dimension>
               </capacity-dimensions>
               <duration>300.0</duration>
               <timeWindows>
                    <timeWindow>
                         <start>1.4567301E9</start>
                         <end>1.45676334E9</end>
                    </timeWindow>
               </timeWindows>
          </service>
          <service id="16843494" type="delivery">
               <location>
                    <id>52.13275,11.6123</id>
                    <coord x="11.6123" y="52.13275"/>
               </location>
               <capacity-dimensions>
                    <dimension index="0">2500</dimension>
               </capacity-dimensions>
               <duration>300.0</duration>
               <timeWindows>
                    <timeWindow>
                         <start>1.4567301E9</start>
                         <end>1.45676334E9</end>
                    </timeWindow>
               </timeWindows>
          </service>
          <service id="16843496" type="delivery">
               <location>
                    <id>52.13293,11.61254</id>
                    <coord x="11.61254" y="52.13293"/>
               </location>
               <capacity-dimensions>
                    <dimension index="0">2500</dimension>
               </capacity-dimensions>
               <duration>300.0</duration>
               <timeWindows>
                    <timeWindow>
                         <start>1.4567301E9</start>
                         <end>1.45676334E9</end>
                    </timeWindow>
               </timeWindows>
          </service>
          <service id="16843498" type="delivery">
               <location>
                    <id>52.13293,11.61276</id>
                    <coord x="11.61276" y="52.13293"/>
               </location>
               <capacity-dimensions>
                    <dimension index="0">2500</dimension>
               </capacity-dimensions>
               <duration>300.0</duration>
               <timeWindows>
                    <timeWindow>
                         <start>1.4567301E9</start>
                         <end>1.45676334E9</end>
                    </timeWindow>
               </timeWindows>
          </service>
          <service id="16843500" type="delivery">
               <location>
                    <id>52.1202784,11.6133895</id>
                    <coord x="11.6133895" y="52.1202784"/>
               </location>
               <capacity-dimensions>
                    <dimension index="0">2500</dimension>
               </capacity-dimensions>
               <duration>300.0</duration>
               <timeWindows>
                    <timeWindow>
                         <start>1.4567301E9</start>
                         <end>1.45676334E9</end>
                    </timeWindow>
               </timeWindows>
          </service>
          <service id="16843502" type="delivery">
               <location>
                    <id>52.12959,11.61108</id>
                    <coord x="11.61108" y="52.12959"/>
               </location>
               <capacity-dimensions>
                    <dimension index="0">2500</dimension>
               </capacity-dimensions>
               <duration>300.0</duration>
               <timeWindows>
                    <timeWindow>
                         <start>1.4567301E9</start>
                         <end>1.45676334E9</end>
                    </timeWindow>
               </timeWindows>
          </service>
          <service id="16843504" type="delivery">
               <location>
                    <id>52.1309,11.60697</id>
                    <coord x="11.60697" y="52.1309"/>
               </location>
               <capacity-dimensions>
                    <dimension index="0">2500</dimension>
               </capacity-dimensions>
               <duration>300.0</duration>
               <timeWindows>
                    <timeWindow>
                         <start>1.4567301E9</start>
                         <end>1.45676334E9</end>
                    </timeWindow>
               </timeWindows>
          </service>
          <service id="16843506" type="delivery">
               <location>
                    <id>52.1291607,11.6107885</id>
                    <coord x="11.6107885" y="52.1291607"/>
               </location>
               <capacity-dimensions>
                    <dimension index="0">2500</dimension>
               </capacity-dimensions>
               <duration>300.0</duration>
               <timeWindows>
                    <timeWindow>
                         <start>1.4567301E9</start>
                         <end>1.45676334E9</end>
                    </timeWindow>
               </timeWindows>
          </service>
          <service id="16843508" type="delivery">
               <location>
                    <id>52.12615,11.62238</id>
                    <coord x="11.62238" y="52.12615"/>
               </location>
               <capacity-dimensions>
                    <dimension index="0">2500</dimension>
               </capacity-dimensions>
               <duration>300.0</duration>
               <timeWindows>
                    <timeWindow>
                         <start>1.4567301E9</start>
                         <end>1.45676334E9</end>
                    </timeWindow>
               </timeWindows>
          </service>
          <service id="16843510" type="delivery">
               <location>
                    <id>52.1289555,11.6153096</id>
                    <coord x="11.6153096" y="52.1289555"/>
               </location>
               <capacity-dimensions>
                    <dimension index="0">2500</dimension>
               </capacity-dimensions>
               <duration>300.0</duration>
               <timeWindows>
                    <timeWindow>
                         <start>1.4567301E9</start>
                         <end>1.45676334E9</end>
                    </timeWindow>
               </timeWindows>
          </service>
          <service id="16843512" type="delivery">
               <location>
                    <id>52.1277297,11.6075059</id>
                    <coord x="11.6075059" y="52.1277297"/>
               </location>
               <capacity-dimensions>
                    <dimension index="0">2500</dimension>
               </capacity-dimensions>
               <duration>300.0</duration>
               <timeWindows>
                    <timeWindow>
                         <start>1.4567301E9</start>
                         <end>1.45676334E9</end>
                    </timeWindow>
               </timeWindows>
          </service>
          <service id="16843514" type="delivery">
               <location>
                    <id>52.1235929,11.609708</id>
                    <coord x="11.609708" y="52.1235929"/>
               </location>
               <capacity-dimensions>
                    <dimension index="0">2500</dimension>
               </capacity-dimensions>
               <duration>300.0</duration>
               <timeWindows>
                    <timeWindow>
                         <start>1.4567301E9</start>
                         <end>1.45676334E9</end>
                    </timeWindow>
               </timeWindows>
          </service>
          <service id="16843516" type="delivery">
               <location>
                    <id>52.1343398,11.6176812</id>
                    <coord x="11.6176812" y="52.1343398"/>
               </location>
               <capacity-dimensions>
                    <dimension index="0">2500</dimension>
               </capacity-dimensions>
               <duration>300.0</duration>
               <timeWindows>
                    <timeWindow>
                         <start>1.4567301E9</start>
                         <end>1.45676334E9</end>
                    </timeWindow>
               </timeWindows>
          </service>
          <service id="16843518" type="delivery">
               <location>
                    <id>52.1335004,11.6084321</id>
                    <coord x="11.6084321" y="52.1335004"/>
               </location>
               <capacity-dimensions>
                    <dimension index="0">2500</dimension>
               </capacity-dimensions>
               <duration>300.0</duration>
               <timeWindows>
                    <timeWindow>
                         <start>1.4567301E9</start>
                         <end>1.45676334E9</end>
                    </timeWindow>
               </timeWindows>
          </service>
          <service id="16843520" type="delivery">
               <location>
                    <id>52.13615,11.62452</id>
                    <coord x="11.62452" y="52.13615"/>
               </location>
               <capacity-dimensions>
                    <dimension index="0">2500</dimension>
               </capacity-dimensions>
               <duration>300.0</duration>
               <timeWindows>
                    <timeWindow>
                         <start>1.4567301E9</start>
                         <end>1.45676334E9</end>
                    </timeWindow>
               </timeWindows>
          </service>
          <service id="16843522" type="delivery">
               <location>
                    <id>52.13931,11.61246</id>
                    <coord x="11.61246" y="52.13931"/>
               </location>
               <capacity-dimensions>
                    <dimension index="0">2500</dimension>
               </capacity-dimensions>
               <duration>300.0</duration>
               <timeWindows>
                    <timeWindow>
                         <start>1.4567301E9</start>
                         <end>1.45676334E9</end>
                    </timeWindow>
               </timeWindows>
          </service>
          <service id="16843524" type="delivery">
               <location>
                    <id>52.1332457,11.6076477</id>
                    <coord x="11.6076477" y="52.1332457"/>
               </location>
               <capacity-dimensions>
                    <dimension index="0">2500</dimension>
               </capacity-dimensions>
               <duration>300.0</duration>
               <timeWindows>
                    <timeWindow>
                         <start>1.4567301E9</start>
                         <end>1.45676334E9</end>
                    </timeWindow>
               </timeWindows>
          </service>
          <service id="16843526" type="delivery">
               <location>
                    <id>52.1337674,11.6103883</id>
                    <coord x="11.6103883" y="52.1337674"/>
               </location>
               <capacity-dimensions>
                    <dimension index="0">2500</dimension>
               </capacity-dimensions>
               <duration>300.0</duration>
               <timeWindows>
                    <timeWindow>
                         <start>1.4567301E9</start>
                         <end>1.45676334E9</end>
                    </timeWindow>
               </timeWindows>
          </service>
          <service id="16843528" type="delivery">
               <location>
                    <id>52.13435,11.60908</id>
                    <coord x="11.60908" y="52.13435"/>
               </location>
               <capacity-dimensions>
                    <dimension index="0">2500</dimension>
               </capacity-dimensions>
               <duration>300.0</duration>
               <timeWindows>
                    <timeWindow>
                         <start>1.4567301E9</start>
                         <end>1.45676334E9</end>
                    </timeWindow>
               </timeWindows>
          </service>
          <service id="16843530" type="delivery">
               <location>
                    <id>52.13391,11.61342</id>
                    <coord x="11.61342" y="52.13391"/>
               </location>
               <capacity-dimensions>
                    <dimension index="0">2500</dimension>
               </capacity-dimensions>
               <duration>300.0</duration>
               <timeWindows>
                    <timeWindow>
                         <start>1.4567301E9</start>
                         <end>1.45676334E9</end>
                    </timeWindow>
               </timeWindows>
          </service>
          <service id="16843532" type="delivery">
               <location>
                    <id>52.136416,11.609955</id>
                    <coord x="11.609955" y="52.136416"/>
               </location>
               <capacity-dimensions>
                    <dimension index="0">2500</dimension>
               </capacity-dimensions>
               <duration>300.0</duration>
               <timeWindows>
                    <timeWindow>
                         <start>1.4567301E9</start>
                         <end>1.45676334E9</end>
                    </timeWindow>
               </timeWindows>
          </service>
          <service id="16843534" type="delivery">
               <location>
                    <id>52.13572,11.6096</id>
                    <coord x="11.6096" y="52.13572"/>
               </location>
               <capacity-dimensions>
                    <dimension index="0">2500</dimension>
               </capacity-dimensions>
               <duration>300.0</duration>
               <timeWindows>
                    <timeWindow>
                         <start>1.4567301E9</start>
                         <end>1.45676334E9</end>
                    </timeWindow>
               </timeWindows>
          </service>
          <service id="16843536" type="delivery">
               <location>
                    <id>52.139585,11.6105927</id>
                    <coord x="11.6105927" y="52.139585"/>
               </location>
               <capacity-dimensions>
                    <dimension index="0">2500</dimension>
               </capacity-dimensions>
               <duration>300.0</duration>
               <timeWindows>
                    <timeWindow>
                         <start>1.4567301E9</start>
                         <end>1.45676334E9</end>
                    </timeWindow>
               </timeWindows>
          </service>
          <service id="16843538" type="delivery">
               <location>
                    <id>52.1393101,11.6140681</id>
                    <coord x="11.6140681" y="52.1393101"/>
               </location>
               <capacity-dimensions>
                    <dimension index="0">2500</dimension>
               </capacity-dimensions>
               <duration>300.0</duration>
               <timeWindows>
                    <timeWindow>
                         <start>1.4567301E9</start>
                         <end>1.45676334E9</end>
                    </timeWindow>
               </timeWindows>
          </service>
          <service id="16843540" type="delivery">
               <location>
                    <id>52.1333452,11.6098217</id>
                    <coord x="11.6098217" y="52.1333452"/>
               </location>
               <capacity-dimensions>
                    <dimension index="0">2500</dimension>
               </capacity-dimensions>
               <duration>300.0</duration>
               <timeWindows>
                    <timeWindow>
                         <start>1.4567301E9</start>
                         <end>1.45676334E9</end>
                    </timeWindow>
               </timeWindows>
          </service>
          <service id="16843542" type="delivery">
               <location>
                    <id>52.1391248,11.6159083</id>
                    <coord x="11.6159083" y="52.1391248"/>
               </location>
               <capacity-dimensions>
                    <dimension index="0">2500</dimension>
               </capacity-dimensions>
               <duration>300.0</duration>
               <timeWindows>
                    <timeWindow>
                         <start>1.4567301E9</start>
                         <end>1.45676334E9</end>
                    </timeWindow>
               </timeWindows>
          </service>
          <service id="16843544" type="delivery">
               <location>
                    <id>52.135057,11.6242327</id>
                    <coord x="11.6242327" y="52.135057"/>
               </location>
               <capacity-dimensions>
                    <dimension index="0">2500</dimension>
               </capacity-dimensions>
               <duration>300.0</duration>
               <timeWindows>
                    <timeWindow>
                         <start>1.4567301E9</start>
                         <end>1.45676334E9</end>
                    </timeWindow>
               </timeWindows>
          </service>
     </services>
     <solutions>
          <solution>
               <cost>220.29587499999988</cost>
               <routes>
                    <route>
                         <driverId>noDriver</driverId>
                         <vehicleId>5925560</vehicleId>
                         <start>1.4567292E9</start>
                         <act type="delivery">
                              <serviceId>16843544</serviceId>
                              <arrTime>1.456729677079E9</arrTime>
                              <endTime>1.4567304E9</endTime>
                         </act>
                         <act type="delivery">
                              <serviceId>16843508</serviceId>
                              <arrTime>1.456730535087E9</arrTime>
                              <endTime>1.456730835087E9</endTime>
                         </act>
                         <act type="delivery">
                              <serviceId>16843450</serviceId>
                              <arrTime>1.4567309361699998E9</arrTime>
                              <endTime>1.4567312361699998E9</endTime>
                         </act>
                         <act type="delivery">
                              <serviceId>16843448</serviceId>
                              <arrTime>1.4567312554799998E9</arrTime>
                              <endTime>1.4567315554799998E9</endTime>
                         </act>
                         <act type="delivery">
                              <serviceId>16843500</serviceId>
                              <arrTime>1.4567315623579998E9</arrTime>
                              <endTime>1.4567318623579998E9</endTime>
                         </act>
                         <act type="delivery">
                              <serviceId>16843466</serviceId>
                              <arrTime>1.4567318801249998E9</arrTime>
                              <endTime>1.4567321801249998E9</endTime>
                         </act>
                         <act type="delivery">
                              <serviceId>16843414</serviceId>
                              <arrTime>1.4567322053929996E9</arrTime>
                              <endTime>1.4567325053929996E9</endTime>
                         </act>
                         <act type="delivery">
                              <serviceId>16843462</serviceId>
                              <arrTime>1.4567325260019996E9</arrTime>
                              <endTime>1.4567328260019996E9</endTime>
                         </act>
                         <act type="delivery">
                              <serviceId>16843514</serviceId>
                              <arrTime>1.4567328361599996E9</arrTime>
                              <endTime>1.4567331361599996E9</endTime>
                         </act>
                         <act type="delivery">
                              <serviceId>16843440</serviceId>
                              <arrTime>1.4567331689999995E9</arrTime>
                              <endTime>1.4567334689999995E9</endTime>
                         </act>
                         <act type="delivery">
                              <serviceId>16843480</serviceId>
                              <arrTime>1.4567335205969994E9</arrTime>
                              <endTime>1.4567338205969994E9</endTime>
                         </act>
                         <act type="delivery">
                              <serviceId>16843434</serviceId>
                              <arrTime>1.4567338717989993E9</arrTime>
                              <endTime>1.4567341717989993E9</endTime>
                         </act>
                         <act type="delivery">
                              <serviceId>16843400</serviceId>
                              <arrTime>1.4567341990579994E9</arrTime>
                              <endTime>1.4567344990579994E9</endTime>
                         </act>
                         <act type="delivery">
                              <serviceId>16843442</serviceId>
                              <arrTime>1.4567345214969993E9</arrTime>
                              <endTime>1.4567348214969993E9</endTime>
                         </act>
                         <act type="delivery">
                              <serviceId>16843484</serviceId>
                              <arrTime>1.4567348218569992E9</arrTime>
                              <endTime>1.4567351218569992E9</endTime>
                         </act>
                         <act type="delivery">
                              <serviceId>16843438</serviceId>
                              <arrTime>1.4567351430659993E9</arrTime>
                              <endTime>1.4567354430659993E9</endTime>
                         </act>
                         <act type="delivery">
                              <serviceId>16843452</serviceId>
                              <arrTime>1.4567354799139993E9</arrTime>
                              <endTime>1.4567357799139993E9</endTime>
                         </act>
                         <act type="delivery">
                              <serviceId>16843474</serviceId>
                              <arrTime>1.4567358062049992E9</arrTime>
                              <endTime>1.4567361062049992E9</endTime>
                         </act>
                         <act type="delivery">
                              <serviceId>16843506</serviceId>
                              <arrTime>1.4567361480829992E9</arrTime>
                              <endTime>1.4567364480829992E9</endTime>
                         </act>
                         <act type="delivery">
                              <serviceId>16843404</serviceId>
                              <arrTime>1.4567364616739993E9</arrTime>
                              <endTime>1.4567367616739993E9</endTime>
                         </act>
                         <act type="delivery">
                              <serviceId>16843502</serviceId>
                              <arrTime>1.4567367688569994E9</arrTime>
                              <endTime>1.4567370688569994E9</endTime>
                         </act>
                         <act type="delivery">
                              <serviceId>16843468</serviceId>
                              <arrTime>1.4567370890379994E9</arrTime>
                              <endTime>1.4567373890379994E9</endTime>
                         </act>
                         <act type="delivery">
                              <serviceId>16843402</serviceId>
                              <arrTime>1.4567373921939993E9</arrTime>
                              <endTime>1.4567376921939993E9</endTime>
                         </act>
                         <act type="delivery">
                              <serviceId>16843486</serviceId>
                              <arrTime>1.4567377237919993E9</arrTime>
                              <endTime>1.4567380237919993E9</endTime>
                         </act>
                         <act type="delivery">
                              <serviceId>16843422</serviceId>
                              <arrTime>1.4567380544009993E9</arrTime>
                              <endTime>1.4567383544009993E9</endTime>
                         </act>
                         <act type="delivery">
                              <serviceId>16843464</serviceId>
                              <arrTime>1.4567384209859993E9</arrTime>
                              <endTime>1.4567387209859993E9</endTime>
                         </act>
                         <act type="delivery">
                              <serviceId>16843410</serviceId>
                              <arrTime>1.4567387323629994E9</arrTime>
                              <endTime>1.4567390323629994E9</endTime>
                         </act>
                         <act type="delivery">
                              <serviceId>16843490</serviceId>
                              <arrTime>1.4567390713769994E9</arrTime>
                              <endTime>1.4567393713769994E9</endTime>
                         </act>
                         <act type="delivery">
                              <serviceId>16843510</serviceId>
                              <arrTime>1.4567394298589995E9</arrTime>
                              <endTime>1.4567397298589995E9</endTime>
                         </act>
                         <act type="delivery">
                              <serviceId>16843412</serviceId>
                              <arrTime>1.4567397640639994E9</arrTime>
                              <endTime>1.4567400640639994E9</endTime>
                         </act>
                         <act type="delivery">
                              <serviceId>16843482</serviceId>
                              <arrTime>1.4567401035019994E9</arrTime>
                              <endTime>1.4567404035019994E9</endTime>
                         </act>
                         <act type="delivery">
                              <serviceId>16843488</serviceId>
                              <arrTime>1.4567404369159994E9</arrTime>
                              <endTime>1.4567407369159994E9</endTime>
                         </act>
                         <act type="delivery">
                              <serviceId>16843436</serviceId>
                              <arrTime>1.4567407631029994E9</arrTime>
                              <endTime>1.4567410631029994E9</endTime>
                         </act>
                         <act type="delivery">
                              <serviceId>16843444</serviceId>
                              <arrTime>1.4567410736439993E9</arrTime>
                              <endTime>1.4567413736439993E9</endTime>
                         </act>
                         <act type="delivery">
                              <serviceId>16843472</serviceId>
                              <arrTime>1.4567413885529993E9</arrTime>
                              <endTime>1.4567416885529993E9</endTime>
                         </act>
                         <act type="delivery">
                              <serviceId>16843446</serviceId>
                              <arrTime>1.4567417156399992E9</arrTime>
                              <endTime>1.4567420156399992E9</endTime>
                         </act>
                         <act type="delivery">
                              <serviceId>16843406</serviceId>
                              <arrTime>1.456742033081999E9</arrTime>
                              <endTime>1.456742333081999E9</endTime>
                         </act>
                         <act type="delivery">
                              <serviceId>16843408</serviceId>
                              <arrTime>1.456742357429999E9</arrTime>
                              <endTime>1.456742657429999E9</endTime>
                         </act>
                         <act type="delivery">
                              <serviceId>16843478</serviceId>
                              <arrTime>1.4567426613079991E9</arrTime>
                              <endTime>1.4567429613079991E9</endTime>
                         </act>
                         <act type="delivery">
                              <serviceId>16843518</serviceId>
                              <arrTime>1.4567429861699991E9</arrTime>
                              <endTime>1.4567432861699991E9</endTime>
                         </act>
                         <act type="delivery">
                              <serviceId>16843528</serviceId>
                              <arrTime>1.4567433055679991E9</arrTime>
                              <endTime>1.4567436055679991E9</endTime>
                         </act>
                         <act type="delivery">
                              <serviceId>16843424</serviceId>
                              <arrTime>1.4567436290219991E9</arrTime>
                              <endTime>1.4567439290219991E9</endTime>
                         </act>
                         <act type="delivery">
                              <serviceId>16843526</serviceId>
                              <arrTime>1.456744003328999E9</arrTime>
                              <endTime>1.456744303328999E9</endTime>
                         </act>
                         <act type="delivery">
                              <serviceId>16843432</serviceId>
                              <arrTime>1.456744340730999E9</arrTime>
                              <endTime>1.456744640730999E9</endTime>
                         </act>
                         <act type="delivery">
                              <serviceId>16843534</serviceId>
                              <arrTime>1.456744645535999E9</arrTime>
                              <endTime>1.456744945535999E9</endTime>
                         </act>
                         <act type="delivery">
                              <serviceId>16843532</serviceId>
                              <arrTime>1.456745013647999E9</arrTime>
                              <endTime>1.456745313647999E9</endTime>
                         </act>
                         <act type="delivery">
                              <serviceId>16843536</serviceId>
                              <arrTime>1.456745359138999E9</arrTime>
                              <endTime>1.456745659138999E9</endTime>
                         </act>
                         <act type="delivery">
                              <serviceId>16843538</serviceId>
                              <arrTime>1.456745679399999E9</arrTime>
                              <endTime>1.456745979399999E9</endTime>
                         </act>
                         <act type="delivery">
                              <serviceId>16843522</serviceId>
                              <arrTime>1.456746001253999E9</arrTime>
                              <endTime>1.456746301253999E9</endTime>
                         </act>
                         <act type="delivery">
                              <serviceId>16843384</serviceId>
                              <arrTime>1.456746367252999E9</arrTime>
                              <endTime>1.456746667252999E9</endTime>
                         </act>
                         <act type="delivery">
                              <serviceId>16843540</serviceId>
                              <arrTime>1.456746726085999E9</arrTime>
                              <endTime>1.456747026085999E9</endTime>
                         </act>
                         <act type="delivery">
                              <serviceId>16843524</serviceId>
                              <arrTime>1.456747047510999E9</arrTime>
                              <endTime>1.456747347510999E9</endTime>
                         </act>
                         <act type="delivery">
                              <serviceId>16843494</serviceId>
                              <arrTime>1.4567474188709989E9</arrTime>
                              <endTime>1.4567477188709989E9</endTime>
                         </act>
                         <act type="delivery">
                              <serviceId>16843496</serviceId>
                              <arrTime>1.456747721465999E9</arrTime>
                              <endTime>1.456748021465999E9</endTime>
                         </act>
                         <act type="delivery">
                              <serviceId>16843416</serviceId>
                              <arrTime>1.456748100165999E9</arrTime>
                              <endTime>1.456748400165999E9</endTime>
                         </act>
                         <act type="delivery">
                              <serviceId>16843380</serviceId>
                              <arrTime>1.4567484250289989E9</arrTime>
                              <endTime>1.4567487250289989E9</endTime>
                         </act>
                         <act type="delivery">
                              <serviceId>16843516</serviceId>
                              <arrTime>1.456748737613999E9</arrTime>
                              <endTime>1.456749037613999E9</endTime>
                         </act>
                         <act type="delivery">
                              <serviceId>16843426</serviceId>
                              <arrTime>1.4567490405519989E9</arrTime>
                              <endTime>1.4567493405519989E9</endTime>
                         </act>
                         <act type="delivery">
                              <serviceId>16843388</serviceId>
                              <arrTime>1.4567493718979988E9</arrTime>
                              <endTime>1.4567496718979988E9</endTime>
                         </act>
                         <act type="delivery">
                              <serviceId>16843418</serviceId>
                              <arrTime>1.4567496913929987E9</arrTime>
                              <endTime>1.4567499913929987E9</endTime>
                         </act>
                         <act type="delivery">
                              <serviceId>16843420</serviceId>
                              <arrTime>1.4567499973989987E9</arrTime>
                              <endTime>1.4567502973989987E9</endTime>
                         </act>
                         <act type="delivery">
                              <serviceId>16843520</serviceId>
                              <arrTime>1.4567503518569987E9</arrTime>
                              <endTime>1.4567506518569987E9</endTime>
                         </act>
                         <act type="delivery">
                              <serviceId>16843470</serviceId>
                              <arrTime>1.4567506817679987E9</arrTime>
                              <endTime>1.4567509817679987E9</endTime>
                         </act>
                         <act type="delivery">
                              <serviceId>16843394</serviceId>
                              <arrTime>1.4567510011009986E9</arrTime>
                              <endTime>1.4567513011009986E9</endTime>
                         </act>
                         <act type="delivery">
                              <serviceId>16843460</serviceId>
                              <arrTime>1.4567513167719986E9</arrTime>
                              <endTime>1.4567516167719986E9</endTime>
                         </act>
                         <act type="delivery">
                              <serviceId>16843430</serviceId>
                              <arrTime>1.4567517225319986E9</arrTime>
                              <endTime>1.4567520225319986E9</endTime>
                         </act>
                         <act type="delivery">
                              <serviceId>16843398</serviceId>
                              <arrTime>1.4567521264099987E9</arrTime>
                              <endTime>1.4567524264099987E9</endTime>
                         </act>
                         <act type="delivery">
                              <serviceId>16843392</serviceId>
                              <arrTime>1.4567524325239987E9</arrTime>
                              <endTime>1.4567527325239987E9</endTime>
                         </act>
                         <act type="delivery">
                              <serviceId>16843386</serviceId>
                              <arrTime>1.4567527584089987E9</arrTime>
                              <endTime>1.4567530584089987E9</endTime>
                         </act>
                         <act type="delivery">
                              <serviceId>16843542</serviceId>
                              <arrTime>1.4567531484099987E9</arrTime>
                              <endTime>1.4567534484099987E9</endTime>
                         </act>
                         <act type="delivery">
                              <serviceId>16843458</serviceId>
                              <arrTime>1.4567535637589986E9</arrTime>
                              <endTime>1.4567538637589986E9</endTime>
                         </act>
                         <act type="delivery">
                              <serviceId>16843428</serviceId>
                              <arrTime>1.4567538737049987E9</arrTime>
                              <endTime>1.4567541737049987E9</endTime>
                         </act>
                         <act type="delivery">
                              <serviceId>16843396</serviceId>
                              <arrTime>1.4567541826999986E9</arrTime>
                              <endTime>1.4567544826999986E9</endTime>
                         </act>
                         <act type="delivery">
                              <serviceId>16843530</serviceId>
                              <arrTime>1.4567545161149986E9</arrTime>
                              <endTime>1.4567548161149986E9</endTime>
                         </act>
                         <act type="delivery">
                              <serviceId>16843456</serviceId>
                              <arrTime>1.4567548353389986E9</arrTime>
                              <endTime>1.4567551353389986E9</endTime>
                         </act>
                         <act type="delivery">
                              <serviceId>16843390</serviceId>
                              <arrTime>1.4567551487609985E9</arrTime>
                              <endTime>1.4567554487609985E9</endTime>
                         </act>
                         <act type="delivery">
                              <serviceId>16843382</serviceId>
                              <arrTime>1.4567554825949986E9</arrTime>
                              <endTime>1.4567557825949986E9</endTime>
                         </act>
                         <act type="delivery">
                              <serviceId>16843498</serviceId>
                              <arrTime>1.4567558353899987E9</arrTime>
                              <endTime>1.4567561353899987E9</endTime>
                         </act>
                         <act type="delivery">
                              <serviceId>16843476</serviceId>
                              <arrTime>1.4567561987209988E9</arrTime>
                              <endTime>1.4567564987209988E9</endTime>
                         </act>
                         <act type="delivery">
                              <serviceId>16843454</serviceId>
                              <arrTime>1.4567565268639987E9</arrTime>
                              <endTime>1.4567568268639987E9</endTime>
                         </act>
                         <act type="delivery">
                              <serviceId>16843504</serviceId>
                              <arrTime>1.4567568483089986E9</arrTime>
                              <endTime>1.4567571483089986E9</endTime>
                         </act>
                         <act type="delivery">
                              <serviceId>16843492</serviceId>
                              <arrTime>1.4567572115219986E9</arrTime>
                              <endTime>1.4567575115219986E9</endTime>
                         </act>
                         <act type="delivery">
                              <serviceId>16843512</serviceId>
                              <arrTime>1.4567575315689986E9</arrTime>
                              <endTime>1.4567578315689986E9</endTime>
                         </act>
                         <end>1.4567584939309986E9</end>
                    </route>
               </routes>
          </solution>
     </solutions>
</problem>
